<?xml version="1.0" encoding="UTF-8" standalone="no"?>
<gpx
xmlns="http://www.topografix.com/GPX/1/1"
xmlns:xsi="http://www.w3.org/2001/XMLSchema-instance" 
xsi:schemaLocation="http://www.topografix.com/GPX/1/1 http://www.topografix.com/GPX/1/1/gpx.xsd"
version="1.1" 
creator="gpx-poi.com">
   <wpt lat="28.408114" lon="-16.564808">
      <time>2015-04-29T11:40:01Z</time>
      <name>Santa Cruz</name>
   </wpt>
</gpx>